{
  "foodSearchCriteria": {
    "generalSearchInput": "Cheddar cheese",
    "pageNumber": 1,
    "requireAllWords": false
  },
  "totalHits": 30557,
  "currentPage": 1,
  "totalPages": 612,
  "foods": [
    {
      "fdcId": 336711,
      "description": "Cheese, Cheddar",
      "additionalDescriptions": "Coon; sharp cheese; Tillamook; Hoop; Pioneer; New York; Wisconsin; Longhorn",
      "dataType": "Survey (FNDDS)",
      "foodCode": "14104100",
      "publishedDate": "2019-04-01",
      "allHighlightFields": "<b>Includes</b>: Coon; sharp <em>cheese</em>; Tillamook; Hoop; Pioneer; New York; Wisconsin; Longhorn",
      "score": 473.10095
    },
    {
      "fdcId": 445241,
      "description": "CHEDDAR CHEESE",
      "dataType": "Branded",
      "gtinUpc": "094776145164",
      "publishedDate": "2019-04-01",
      "brandOwner": "Lipari Foods Operating Company, LLC",
      "ingredients": "PASTEURIZED MILK, CHEESE CULTURE, SALT, ENZYMES AND ANNATTO (VEGETABLE COLOR). POTATO STARCH, CORN STARCH AND CALCIUM SULFATE ADDED TO PREVENT CAKING. NATAMYCIN (A NATURAL MOLD INHIBITOR).",
      "allHighlightFields": "<b>Ingredients</b>: PASTEURIZED MILK, <em>CHEESE</em> CULTURE, SALT, ENZYMES AND ANNATTO (VEGETABLE COLOR). POTATO STARCH, CORN",
      "score": 418.31903
    },
    {
      "fdcId": 528705,
      "description": "CHEDDAR CHEESE",
      "dataType": "Branded",
      "gtinUpc": "07078401652",
      "publishedDate": "2019-04-01",
      "brandOwner": "Tops Markets, LLC",
      "ingredients": "PASTEURIZED MILK, CHEESE CULTURE, SALT, ENZYMES, ANNATTO (VEGETABLE COLOR).",
      "allHighlightFields": "<b>Ingredients</b>: PASTEURIZED MILK, <em>CHEESE</em> CULTURE, SALT, ENZYMES, ANNATTO (VEGETABLE COLOR).",
      "score": 418.31903
    },
    {
      "fdcId": 535403,
      "description": "CHEDDAR CHEESE",
      "dataType": "Branded",
      "gtinUpc": "034500448307",
      "publishedDate": "2019-04-01",
      "brandOwner": "Land O'Lakes, Inc.",
      "ingredients": "CULTURED PASTEURIZED MILK, SALT, ENZYMES, ANNATTO (COLOR).",
      "allHighlightFields": "",
      "score": 418.31903
    },
    {
      "fdcId": 470794,
      "description": "CHEDDAR CHEESE",
      "dataType": "Branded",
      "gtinUpc": "025555300085",
      "publishedDate": "2019-04-01",
      "brandOwner": "Coblentz Distributing, Inc.",
      "ingredients": "PASTEURIZED MILK, CHEESE CULTURE, SALT, ENZYMES AND ANNATTO (VEGETABLE COLOR).",
      "allHighlightFields": "<b>Ingredients</b>: PASTEURIZED MILK, <em>CHEESE</em> CULTURE, SALT, ENZYMES AND ANNATTO (VEGETABLE COLOR).",
      "score": 418.31903
    },
    {
      "fdcId": 470991,
      "description": "CHEDDAR CHEESE",
      "dataType": "Branded",
      "gtinUpc": "041220960965",
      "publishedDate": "2019-04-01",
      "brandOwner": "H E Butt Grocery Company",
      "ingredients": "PASTEURIZED ORGANIC MILK, CHEESE CULTURES, SEA SALT, VEGETABLE ENZYMES.",
      "allHighlightFields": "<b>Ingredients</b>: PASTEURIZED ORGANIC MILK, <em>CHEESE</em> CULTURES, SEA SALT, VEGETABLE ENZYMES.",
      "score": 418.31903
    },
    {
      "fdcId": 380864,
      "description": "CHEDDAR CHEESE",
      "dataType": "Branded",
      "gtinUpc": "041497083978",
      "publishedDate": "2019-04-01",
      "brandOwner": "Weis Markets, Inc.",
      "ingredients": "PASTEURIZED MILK, CHEESE CULTURE, SALT, ENZYMES. ",
      "allHighlightFields": "<b>Ingredients</b>: PASTEURIZED MILK, <em>CHEESE</em> CULTURE, SALT, ENZYMES. ",
      "score": 418.31903
    },
    {
      "fdcId": 380920,
      "description": "CHEDDAR CHEESE",
      "dataType": "Branded",
      "gtinUpc": "041497084722",
      "publishedDate": "2019-04-01",
      "brandOwner": "Weis Markets, Inc.",
      "ingredients": "PASTEURIZED MILK, CHEESE CULTURE, SALT AND ENZYMES.",
      "allHighlightFields": "<b>Ingredients</b>: PASTEURIZED MILK, <em>CHEESE</em> CULTURE, SALT AND ENZYMES.",
      "score": 418.31903
    },
    {
      "fdcId": 453650,
      "description": "CHEDDAR CHEESE",
      "dataType": "Branded",
      "gtinUpc": "854115003339",
      "publishedDate": "2019-04-01",
      "brandOwner": "Heber Valley Artisan Cheese LLC",
      "ingredients": "PASTEURIZED MILK, SALT, LEMON, LEMON PEEL, SAGE, CHEESE CULTURES AND ENZYMES.",
      "allHighlightFields": "<b>Brand Owner</b>: Heber Valley Artisan <em>Cheese</em> LLC<br/><b>Ingredients</b>: PASTEURIZED MILK, SALT, LEMON, LEMON PEEL, SAGE, <em>CHEESE</em> CULTURES AND ENZYMES.",
      "score": 418.31903
    },
    {
      "fdcId": 494681,
      "description": "CHEDDAR CHEESE",
      "dataType": "Branded",
      "gtinUpc": "711565124031",
      "publishedDate": "2019-04-01",
      "brandOwner": "RED LEAF",
      "ingredients": "MILK, CHEESE CULTURE , SALT, ENZYMES.",
      "allHighlightFields": "<b>Ingredients</b>: MILK, <em>CHEESE</em> CULTURE , SALT, ENZYMES.",
      "score": 418.31903
    },
    {
      "fdcId": 516832,
      "description": "CHEDDAR CHEESE",
      "dataType": "Branded",
      "gtinUpc": "828653282457",
      "publishedDate": "2019-04-01",
      "brandOwner": "MDS Foods Inc.",
      "ingredients": "MILK, CHEESE CULTURES, SALT, ENZYMES AND ANNATTO COLOR IF NECESSARY.",
      "allHighlightFields": "<b>Ingredients</b>: MILK, <em>CHEESE</em> CULTURES, SALT, ENZYMES AND ANNATTO COLOR IF NECESSARY.",
      "score": 418.31903
    },
    {
      "fdcId": 574634,
      "description": "CHEDDAR CHEESE",
      "dataType": "Branded",
      "gtinUpc": "071505017893",
      "publishedDate": "2019-04-01",
      "brandOwner": "Schreiber Foods, Inc.",
      "ingredients": "PASTEURIZED MILK, CHEESE CULTURE, SALT, ENZYMES, COLOR ADDED.",
      "allHighlightFields": "<b>Ingredients</b>: PASTEURIZED MILK, <em>CHEESE</em> CULTURE, SALT, ENZYMES, COLOR ADDED.",
      "score": 418.31903
    },
    {
      "fdcId": 444521,
      "description": "CHEDDAR CHEESE",
      "dataType": "Branded",
      "gtinUpc": "078354715321",
      "publishedDate": "2019-04-01",
      "brandOwner": "Agri-Mark, Inc.",
      "ingredients": "PASTEURIZED MILK, CHEESE CULTURES SALT, ENZYMES ANNATTO (FOR COLOR).",
      "allHighlightFields": "<b>Ingredients</b>: PASTEURIZED MILK, <em>CHEESE</em> CULTURES SALT, ENZYMES ANNATTO (FOR COLOR).",
      "score": 418.31903
    },
    {
      "fdcId": 446453,
      "description": "CHEDDAR CHEESE",
      "dataType": "Branded",
      "gtinUpc": "708152328712",
      "publishedDate": "2019-04-01",
      "brandOwner": "Sid Wainer & Son Specialty Produce",
      "ingredients": "CHEDDAR CHEESE (PASTEURIZED COW'S MILK SALT [SALT, YELLOW PRUSSIATE OF SODA {ANTI-CAKING AGENT}], MICROBIAL RENNET, DAIRY CULTURES), CRACKED BLACK PEPPER, GRANULATED ONION (GRANULATED ONION CALCIUM STEARATE [ANTI-CAKING AGENT]).",
      "allHighlightFields": "<b>Ingredients</b>: <em>CHEDDAR</em> <em>CHEESE</em> (PASTEURIZED COW'S MILK SALT [SALT, YELLOW PRUSSIATE OF SODA {ANTI-CAKING AGENT",
      "score": 418.31903
    },
    {
      "fdcId": 356742,
      "description": "CHEDDAR CHEESE",
      "dataType": "Branded",
      "gtinUpc": "216221709121",
      "publishedDate": "2019-04-01",
      "brandOwner": "BLACK DIAMOND",
      "ingredients": "CULTURED MILK, SALT, ENZYMES. MADE FROM MILK, CULTURE, RENNET AND OR PEPSIN, SALT, ANNATO COLOR (IF COLORED).",
      "allHighlightFields": "",
      "score": 418.31903
    },
    {
      "fdcId": 380724,
      "description": "CHEDDAR CHEESE",
      "dataType": "Branded",
      "gtinUpc": "041497082995",
      "publishedDate": "2019-04-01",
      "brandOwner": "Weis Markets, Inc.",
      "ingredients": "PASTEURIZED PART-SKIM MILK, CHEESE CULTURE, SALT, ENZYMES AND ANNATTO [VEGETABLE COLOR], VITAMIN A PALMITATE. POTATO STARCH, CORN STARCH AND CALCIUM SULFATE ADDED TO PREVENT CAKING. NATAMYCIN (A NATURAL MOLD INHIBITOR).",
      "allHighlightFields": "<b>Ingredients</b>: PASTEURIZED PART-SKIM MILK, <em>CHEESE</em> CULTURE, SALT, ENZYMES AND ANNATTO [VEGETABLE COLOR], VITAMIN",
      "score": 418.31903
    },
    {
      "fdcId": 380928,
      "description": "CHEDDAR CHEESE",
      "dataType": "Branded",
      "gtinUpc": "041497084029",
      "publishedDate": "2019-04-01",
      "brandOwner": "Weis Markets, Inc.",
      "ingredients": "PASTEURIZED MILK, CHEESE CULTURE, SALT, ENZYMES AND ANNATTO (VEGETABLE COLOR). AGED OVER 6 MONTHS.",
      "allHighlightFields": "<b>Ingredients</b>: PASTEURIZED MILK, <em>CHEESE</em> CULTURE, SALT, ENZYMES AND ANNATTO (VEGETABLE COLOR). AGED OVER 6 MONTHS.",
      "score": 418.31903
    },
    {
      "fdcId": 506481,
      "description": "CHEDDAR CHEESE",
      "dataType": "Branded",
      "gtinUpc": "855125001124",
      "publishedDate": "2019-04-01",
      "brandOwner": "JISA'S FARMSTEAD CHEESE",
      "ingredients": "PASTEURIZED MILK, SALT, ENZYMES, CULTURES, BLVD UNFILTERED WHEAT BEER.",
      "allHighlightFields": "<b>Brand Owner</b>: JISA'S FARMSTEAD <em>CHEESE</em>",
      "score": 418.31903
    },
    {
      "fdcId": 514854,
      "description": "CHEDDAR CHEESE",
      "dataType": "Branded",
      "gtinUpc": "075805203611",
      "publishedDate": "2019-04-01",
      "brandOwner": "Saputo Cheese USA Inc.",
      "ingredients": "PASTEURIZED MILK, CHEESE CULTURES, SALT, ENZYMES.",
      "allHighlightFields": "<b>Brand Owner</b>: Saputo <em>Cheese</em> USA Inc.<br/><b>Ingredients</b>: PASTEURIZED MILK, <em>CHEESE</em> CULTURES, SALT, ENZYMES.",
      "score": 418.31903
    },
    {
      "fdcId": 436668,
      "description": "CHEDDAR CHEESE",
      "dataType": "Branded",
      "gtinUpc": "099482459987",
      "publishedDate": "2019-04-01",
      "brandOwner": "Whole Foods Market, Inc.",
      "ingredients": "CULTURED PASTEURIZED MILK, SALT, MICROBIAL ENZYMES, ANNATTO (FOR COLOR).",
      "allHighlightFields": "",
      "score": 418.31903
    },
    {
      "fdcId": 580536,
      "description": "CHEDDAR CHEESE",
      "dataType": "Branded",
      "gtinUpc": "039073075349",
      "publishedDate": "2019-04-01",
      "brandOwner": "John Morrell & Co.",
      "ingredients": "PASTEURIZED CULTURED MILK, SALT, MINCED GARLIC, DILL WEED, ENZYMES.",
      "allHighlightFields": "",
      "score": 418.31903
    },
    {
      "fdcId": 490738,
      "description": "CHEDDAR CHEESE",
      "dataType": "Branded",
      "gtinUpc": "078742148786",
      "publishedDate": "2019-04-01",
      "brandOwner": "Wal-Mart Stores, Inc.",
      "ingredients": "PASTEURIZED MILK, CHEESE CULTURE, SALT, ENZYMES, ANNATTO COLOR.",
      "allHighlightFields": "<b>Ingredients</b>: PASTEURIZED MILK, <em>CHEESE</em> CULTURE, SALT, ENZYMES, ANNATTO COLOR.",
      "score": 418.31903
    },
    {
      "fdcId": 562464,
      "description": "CHEDDAR CHEESE",
      "dataType": "Branded",
      "gtinUpc": "643831000698",
      "publishedDate": "2019-04-01",
      "brandOwner": "KINDRED CREAMERY",
      "ingredients": "PASTEURIZED CULTURED MILK, SALT, ENZYME, ANNATTO (VEGETABLE COLOR).",
      "allHighlightFields": "",
      "score": 418.31903
    },
    {
      "fdcId": 570940,
      "description": "CHEDDAR CHEESE",
      "dataType": "Branded",
      "gtinUpc": "078354719213",
      "publishedDate": "2019-04-01",
      "brandOwner": "Agri-Mark, Inc.",
      "ingredients": "PASTEURIZED NONFAT MILK AND MILK, CHEESE CULTURES, CORNSTARCH*, SALT, MONOGLYCERIDE*, DIGLYCERIDE*, ENZYMES, VITAMIN A PALMITATE.",
      "allHighlightFields": "<b>Ingredients</b>: PASTEURIZED NONFAT MILK AND MILK, <em>CHEESE</em> CULTURES, CORNSTARCH*, SALT, MONOGLYCERIDE*, DIGLYCERIDE*, ENZYMES, VITAMIN A PALMITATE.",
      "score": 418.31903
    },
    {
      "fdcId": 528880,
      "description": "CHEDDAR CHEESE",
      "dataType": "Branded",
      "gtinUpc": "04131858069",
      "publishedDate": "2019-04-01",
      "brandOwner": "Schnuck Markets, Inc.",
      "ingredients": "PASTEURIZED MILK, CHEESE CULTURE, SALT, ENZYMES, ANNATTO (VEGETABLE COLOR).",
      "allHighlightFields": "<b>Ingredients</b>: PASTEURIZED MILK, <em>CHEESE</em> CULTURE, SALT, ENZYMES, ANNATTO (VEGETABLE COLOR).",
      "score": 418.31903
    },
    {
      "fdcId": 380726,
      "description": "CHEDDAR CHEESE",
      "dataType": "Branded",
      "gtinUpc": "041497083749",
      "publishedDate": "2019-04-01",
      "brandOwner": "Weis Markets, Inc.",
      "ingredients": "CULTURED PASTEURIZED MILK, SALT, ENZYMES, ANNATTO COLOR, ANTICAKE (POTATO STARCH, CORN STARCH, POWDERED CELLULOSE), NATAMYCIN (A NATURAL MOLD INHIBITOR).",
      "allHighlightFields": "",
      "score": 418.31903
    },
    {
      "fdcId": 380910,
      "description": "CHEDDAR CHEESE",
      "dataType": "Branded",
      "gtinUpc": "041497084463",
      "publishedDate": "2019-04-01",
      "brandOwner": "Weis Markets, Inc.",
      "ingredients": "PASTEURIZED MILK, CHEESE CULTURE, SALT, ENZYMES.",
      "allHighlightFields": "<b>Ingredients</b>: PASTEURIZED MILK, <em>CHEESE</em> CULTURE, SALT, ENZYMES.",
      "score": 418.31903
    },
    {
      "fdcId": 440768,
      "description": "CHEDDAR CHEESE",
      "dataType": "Branded",
      "gtinUpc": "03003400724",
      "publishedDate": "2019-04-01",
      "brandOwner": "Giant Eagle, Inc.",
      "ingredients": "PASTEURIZED MILK, CHEESE CULTURE, SALT, ENZYMES, ANNATTO (VEGETABLE COLOR)",
      "allHighlightFields": "<b>Ingredients</b>: PASTEURIZED MILK, <em>CHEESE</em> CULTURE, SALT, ENZYMES, ANNATTO (VEGETABLE COLOR)",
      "score": 418.31903
    },
    {
      "fdcId": 445238,
      "description": "CHEDDAR CHEESE",
      "dataType": "Branded",
      "gtinUpc": "094395000172",
      "publishedDate": "2019-04-01",
      "brandOwner": "Grafton Village Cheese Co, LLC",
      "ingredients": "UNPASTEURIZED MILK, SALT, TRUFFLES (TRUFFLE, WATER, SALT, AROMAS), TRUFFLE OIL (OLIVE OIL, TRUFFLE FLAVOR), CULTURES, ENZYMES.",
      "allHighlightFields": "<b>Brand Owner</b>: Grafton Village <em>Cheese</em> Co, LLC",
      "score": 418.31903
    },
    {
      "fdcId": 445266,
      "description": "CHEDDAR CHEESE",
      "dataType": "Branded",
      "gtinUpc": "094776147168",
      "publishedDate": "2019-04-01",
      "brandOwner": "Lipari Foods Operating Company, LLC",
      "ingredients": "PASTEURIZED MILK, CHEESE CULTURES, SALT, ENZYMES AND ANNATTO (VEGETABLE COLOR).",
      "allHighlightFields": "<b>Ingredients</b>: PASTEURIZED MILK, <em>CHEESE</em> CULTURES, SALT, ENZYMES AND ANNATTO (VEGETABLE COLOR).",
      "score": 418.31903
    },
    {
      "fdcId": 370965,
      "description": "CHEDDAR CHEESE",
      "dataType": "Branded",
      "gtinUpc": "75925301068",
      "publishedDate": "2019-04-01",
      "brandOwner": "Three Square Inc.",
      "ingredients": "PASTEURIZED MILK, CHEESE CULTURE, SALT, ENZYMES, ANNATTO COLOR.",
      "allHighlightFields": "<b>Ingredients</b>: PASTEURIZED MILK, <em>CHEESE</em> CULTURE, SALT, ENZYMES, ANNATTO COLOR.",
      "score": 418.31903
    },
    {
      "fdcId": 529961,
      "description": "CHEDDAR CHEESE",
      "dataType": "Branded",
      "gtinUpc": "634660381317",
      "publishedDate": "2019-04-01",
      "brandOwner": "The Deli Source, Inc.",
      "ingredients": "PASTERURIZED MILK, CHEESE CULTURES, SALT, ENZYMES, ANNATTO COLOR.",
      "allHighlightFields": "<b>Ingredients</b>: PASTERURIZED MILK, <em>CHEESE</em> CULTURES, SALT, ENZYMES, ANNATTO COLOR.",
      "score": 418.31903
    },
    {
      "fdcId": 535463,
      "description": "CHEDDAR CHEESE",
      "dataType": "Branded",
      "gtinUpc": "042634004023",
      "publishedDate": "2019-04-01",
      "brandOwner": "Alpine Lace Brands, Inc.",
      "ingredients": "CULTURED PASTEURIZED REDUCED FAT MILK, SALT, ENZYMES, ANNATTO (COLOR), *VITAMIN A PALMITATE.",
      "allHighlightFields": "",
      "score": 418.31903
    },
    {
      "fdcId": 539193,
      "description": "CHEDDAR CHEESE",
      "dataType": "Branded",
      "gtinUpc": "841111000769",
      "publishedDate": "2019-04-01",
      "brandOwner": "LONDONER",
      "ingredients": "CULTURED PASTEURIZED MILK, SALT, VEGETARIAN RENNET.",
      "allHighlightFields": "",
      "score": 418.31903
    },
    {
      "fdcId": 409835,
      "description": "CHEDDAR CHEESE",
      "dataType": "Branded",
      "gtinUpc": "05315105",
      "publishedDate": "2019-04-01",
      "brandOwner": "ELSIE BORDEN",
      "ingredients": "PASTEURIZED MILK, CHEESE CULTURE, SALT, ENZYMES, ANNATTO (COLOR)",
      "allHighlightFields": "<b>Ingredients</b>: PASTEURIZED MILK, <em>CHEESE</em> CULTURE, SALT, ENZYMES, ANNATTO (COLOR)",
      "score": 418.31903
    },
    {
      "fdcId": 468559,
      "description": "CHEDDAR CHEESE",
      "dataType": "Branded",
      "gtinUpc": "093966003833",
      "publishedDate": "2019-04-01",
      "brandOwner": "Cooperative Regions of Organic Producer Pools",
      "ingredients": "ORGANIC CULTURED PASTEURIZED MILK,SALT,VEGETARIAN ENZYMES.",
      "allHighlightFields": "",
      "score": 418.31903
    },
    {
      "fdcId": 471063,
      "description": "CHEDDAR CHEESE",
      "dataType": "Branded",
      "gtinUpc": "041303050941",
      "publishedDate": "2019-04-01",
      "brandOwner": "Supervalu, Inc.",
      "ingredients": "PASTEURIZED MILK, CHEESE CULTURE, SALT, ENZYMES, ANNATTO COLOR.",
      "allHighlightFields": "<b>Ingredients</b>: PASTEURIZED MILK, <em>CHEESE</em> CULTURE, SALT, ENZYMES, ANNATTO COLOR.",
      "score": 418.31903
    },
    {
      "fdcId": 492497,
      "description": "CHEDDAR CHEESE",
      "dataType": "Branded",
      "gtinUpc": "041130383014",
      "publishedDate": "2019-04-01",
      "brandOwner": "Supervalu, Inc.",
      "ingredients": "CHEDDAR CHEESE (PASTEURIZED MILK, CHEESE CULTURES, SALT, ENZYMES).",
      "allHighlightFields": "<b>Ingredients</b>: <em>CHEDDAR</em> <em>CHEESE</em> (PASTEURIZED MILK, <em>CHEESE</em> CULTURES, SALT, ENZYMES).",
      "score": 418.31903
    },
    {
      "fdcId": 546838,
      "description": "CHEDDAR CHEESE",
      "dataType": "Branded",
      "gtinUpc": "098487301789",
      "publishedDate": "2019-04-01",
      "brandOwner": "MARKET ESSENTIALS",
      "ingredients": "PASTEURIZED MILK, CHEESE CULTURE, SALT, ENZYMES, COLOR ADDED.",
      "allHighlightFields": "<b>Ingredients</b>: PASTEURIZED MILK, <em>CHEESE</em> CULTURE, SALT, ENZYMES, COLOR ADDED.",
      "score": 418.31903
    },
    {
      "fdcId": 558066,
      "description": "CHEDDAR CHEESE",
      "dataType": "Branded",
      "gtinUpc": "075925300924",
      "publishedDate": "2019-04-01",
      "brandOwner": "Milton G. Waldbaum Company",
      "ingredients": "PASTEURIZED MILK, CHEESE CULTURE, SALT, ENZYMES, ANNATO COLOR.",
      "allHighlightFields": "<b>Ingredients</b>: PASTEURIZED MILK, <em>CHEESE</em> CULTURE, SALT, ENZYMES, ANNATO COLOR.",
      "score": 418.31903
    },
    {
      "fdcId": 559204,
      "description": "CHEDDAR CHEESE",
      "dataType": "Branded",
      "gtinUpc": "072830008112",
      "publishedDate": "2019-04-01",
      "brandOwner": "Tillamook County Creamery Association",
      "ingredients": "CULTURED MILK, SALT, ENZYMES, ANNATTO (COLOR).",
      "allHighlightFields": "",
      "score": 418.31903
    },
    {
      "fdcId": 565295,
      "description": "CHEDDAR CHEESE",
      "dataType": "Branded",
      "gtinUpc": "078742039718",
      "publishedDate": "2019-04-01",
      "brandOwner": "Wal-Mart Stores, Inc.",
      "ingredients": "PASTEURIZED MILK, CHEESE CULTURE, SALT, ENZYMES, ANNATTO COLOR.",
      "allHighlightFields": "<b>Ingredients</b>: PASTEURIZED MILK, <em>CHEESE</em> CULTURE, SALT, ENZYMES, ANNATTO COLOR.",
      "score": 418.31903
    },
    {
      "fdcId": 505459,
      "description": "CHEDDAR CHEESE",
      "dataType": "Branded",
      "gtinUpc": "041735074676",
      "publishedDate": "2019-04-01",
      "brandOwner": "Price Chopper Supermarkets",
      "ingredients": "PASTEURIZED MILK, CHEESE CULTURE, JALAPENO PEPPERS, SALT, TACO SEASONING (CORN FLOUR, SALT, CHILI PEPPER, SPICES, GARLIC, AUTOLYZED YEAST, ONION, CITRIC ACID, PAPRIKA, NATURAL FLAVORS), HABANEROL, ENZYMES.",
      "allHighlightFields": "<b>Ingredients</b>: PASTEURIZED MILK, <em>CHEESE</em> CULTURE, JALAPENO PEPPERS, SALT, TACO SEASONING (CORN FLOUR, SALT, CHILI",
      "score": 418.31903
    },
    {
      "fdcId": 370955,
      "description": "CHEDDAR CHEESE",
      "dataType": "Branded",
      "gtinUpc": "75925306292",
      "publishedDate": "2019-04-01",
      "brandOwner": "Three Square Inc.",
      "ingredients": "CHEDDAR CHEESE (PASTEURIZED MILK, CHEESE CULTURE, SALT, ENZYMES, ANNATTO COLOR), POTATO STARCH, STARCH AND CELLULOSE POWDER TO PREVENT CAKING, NATAMYCIN (MOLD INHIBITOR).",
      "allHighlightFields": "<b>Ingredients</b>: <em>CHEDDAR</em> <em>CHEESE</em> (PASTEURIZED MILK, <em>CHEESE</em> CULTURE, SALT, ENZYMES, ANNATTO COLOR), POTATO STARCH",
      "score": 418.31903
    },
    {
      "fdcId": 380925,
      "description": "CHEDDAR CHEESE",
      "dataType": "Branded",
      "gtinUpc": "041497083985",
      "publishedDate": "2019-04-01",
      "brandOwner": "Weis Markets, Inc.",
      "ingredients": "PASTEURIZED MILK, CHEESE CULTURE, SALT AND ENZYMES.",
      "allHighlightFields": "<b>Ingredients</b>: PASTEURIZED MILK, <em>CHEESE</em> CULTURE, SALT AND ENZYMES.",
      "score": 418.31903
    },
    {
      "fdcId": 380926,
      "description": "CHEDDAR CHEESE",
      "dataType": "Branded",
      "gtinUpc": "041497081028",
      "publishedDate": "2019-04-01",
      "brandOwner": "Weis Markets, Inc.",
      "ingredients": "PASTEURIZED PART-SKIM MILK, CHEESE CULTURE, SALT, ENZYMES AND ANNATTO [VEGETABLE COLOR], VITAMIN A PALMITATE. ",
      "allHighlightFields": "<b>Ingredients</b>: PASTEURIZED PART-SKIM MILK, <em>CHEESE</em> CULTURE, SALT, ENZYMES AND ANNATTO [VEGETABLE COLOR], VITAMIN A PALMITATE. ",
      "score": 418.31903
    },
    {
      "fdcId": 486293,
      "description": "CHEDDAR CHEESE",
      "dataType": "Branded",
      "gtinUpc": "02114032045",
      "publishedDate": "2019-04-01",
      "brandOwner": "Winn-Dixie Stores, Inc.",
      "ingredients": "PASTEURIZED MILK, CHEESE CULTURES, SALT, ENZYMES, ANNATTO VEGETABLE COLOR.",
      "allHighlightFields": "<b>Ingredients</b>: PASTEURIZED MILK, <em>CHEESE</em> CULTURES, SALT, ENZYMES, ANNATTO VEGETABLE COLOR.",
      "score": 418.31903
    },
    {
      "fdcId": 488631,
      "description": "CHEDDAR CHEESE",
      "dataType": "Branded",
      "gtinUpc": "072830006118",
      "publishedDate": "2019-04-01",
      "brandOwner": "Tillamook County Creamery Association",
      "ingredients": "CULTURED MILK, SALT, ENZYMES, ANNATTO(FOR NATURAL COLOR).",
      "allHighlightFields": "",
      "score": 418.31903
    },
    {
      "fdcId": 488741,
      "description": "CHEDDAR CHEESE",
      "dataType": "Branded",
      "gtinUpc": "072830005852",
      "publishedDate": "2019-04-01",
      "brandOwner": "Tillamook County Creamery Association",
      "ingredients": "CULTURED MILK, SALT, ENZYMES, ANNATTO (COLOR).",
      "allHighlightFields": "",
      "score": 418.31903
    },
    {
      "fdcId": 441946,
      "description": "CHEDDAR CHEESE",
      "dataType": "Branded",
      "gtinUpc": "041290110857",
      "publishedDate": "2019-04-01",
      "brandOwner": "Piggly Wiggly Company",
      "ingredients": "FAT FREE CHEDDAR CHEESE (PASTEURIZED PART-SKIM MILK*, CHEESE CULTURE, SALT, ENZYMES, ANNATTO COLOR, VITAMIN A PALMITATE), POTATO STARCH AND POWDERED CELLULOSE ADDED TO PREVENT CAKING, NATAMYCIN (A NATURAL MOLD INHIBITOR).",
      "allHighlightFields": "<b>Ingredients</b>: FAT FREE <em>CHEDDAR</em> <em>CHEESE</em> (PASTEURIZED PART-SKIM MILK*, <em>CHEESE</em> CULTURE, SALT, ENZYMES, ANNATTO COLOR",
      "score": 418.31903
    }
  ]
}